[
	{
        "langName": "English",
        "langId": "en",
        "icon": "us",
        "lang": "En"
    },
    {
        "langName": "Vietnamese",
        "langId": "vi",
        "icon": "vi",
        "lang": "Vn"
    }
]